<svg width="6" height="4" viewBox="0 0 6 4" fill="none" xmlns="http://www.w3.org/2000/svg">
<path d="M5 1L2.98958 3L1 1" stroke="#476E9A" stroke-width="2" stroke-linecap="round" stroke-linejoin="round"/>
</svg>
